<?xml version="1.0" encoding="utf-8"?>
<!-- Generator: Adobe Illustrator 24.0.0, SVG Export Plug-In . SVG Version: 6.00 Build 0)  -->
<svg version="1.1" id="Layer_1" xmlns="http://www.w3.org/2000/svg" xmlns:xlink="http://www.w3.org/1999/xlink" x="0px" y="0px"
	 viewBox="0 0 159.1 159.1" style="enable-background:new 0 0 159.1 159.1;" xml:space="preserve">
<style type="text/css">
	.st0{fill:#FFFFFF;}
	.st1{fill:#016ADB;}
</style>
<path class="st0" d="M139,151H20c-6.6,0-12-5.4-12-12V20c0-6.6,5.4-12,12-12h119c6.6,0,12,5.4,12,12v119
	C151,145.6,145.6,151,139,151z"/>
<path class="st1" d="M26.3,26.3v106.5h106.5V26.3H26.3z M97.6,50.6H73.4V84h24.3v13.3H61.4v-60h36.2V50.6z M95.9,61.5v11.7H84.2
	V61.5H95.9z M121.9,121.9H37.2V37.2h13.4v71h58v-71h13.4V121.9z"/>
<g>
</g>
<g>
</g>
<g>
</g>
<g>
</g>
<g>
</g>
<g>
</g>
<g>
</g>
<g>
</g>
<g>
</g>
<g>
</g>
<g>
</g>
<g>
</g>
<g>
</g>
<g>
</g>
<g>
</g>
</svg>
